January - 01 - 31 days - winter holidays

February - 02 - 28 days

March - 03 - 31 days

April - 04 - 30 days

May - 05 - 31 days

June - 06 - 30 days - summer holidays

July - 07 - 31 days - summer holidays

August - 08 - 31 days - summer holidays

September - 09 - 30 days

October - 10 - 31 days

November - 11 - 30 days

December - 12 - 31 days
